{"rateDetail": {"paginator": {"items": 460, "page": 1, "lastPage": 23}, "rateCount": {"shop": 0, "total": 4764, "used": 298, "picNum": 460}, "rateDanceInfo": {"storeType": 4, "intervalMilles": 156556852540, "currentMilles": 1451104909127, "showChooseTopic": false}, "rateList": [{"useful": true, "userVipPic": "", "buyCount": 0, "userVipLevel": 0, "serviceRateContent": "", "displayUserLink": "", "auctionPicUrl": "", "displayRatePic": "b_blue_1.gif", "id": 245525692561, "anony": true, "appendComment": {"commentTime": "2015-07-03 16:28:45", "days": 0, "pics": ["//img.alicdn.com/bao/uploaded/i3/185640107478201695/TB2UZpvdFXXXXb5XpXXXXXXXXXX_!!453478564-0-rate.jpg", "//img.alicdn.com/bao/uploaded/i2/185640107478219433/TB2WHFPdFXXXXbiXXXXXXXXXXXX_!!453478564-0-rate.jpg"], "content": "\u00fb\u05f0\u00b5\u01a3\ud863", "reply": "", "commentId": ""}, "tradeId": "", "dsr": 0.0, "tmallSweetPic": "tmall-grade-t4-18.png", "reply": "", "auctionPrice": "", "aliMallSeller": false, "carServiceLocation": "", "aucNumId": "", "picsSmall": "", "userInfo": "", "displayUserNumId": "", "position": "", "displayUserNick": "***", "displayRateSum": 253, "userIdEncryption": "", "sellerId": 715577065, "displayUserRateLink": "", "rateContent": "\u0575\u02e3\u00fb\u03b5\u01e3\u02bd\u01af\u00fb\u00f4\u0ee8\u0535\u0136\u01f3\u02b5\u00e3\u04a3\u0623\u0275\u023a\u026b\u08ec\u05bb\u01f8\u043e\uec35\u0135\u01fa\u053a\u07b8\u0121\u01b5\u0135\u033c\u04bf\u01f5\u013a\u0735\u073a\u073a\u00f5\u0137\u05b9\u00f3\ub8ec\u07f7\u02bd\u01f3\u3863  \u03b4\u04f1\u02e3\u0370\u05f0\u04bb\u05b1\u073a\u00e1", "auctionTitle": "", "cmsSource": "\u00e8", "rateDate": "2015-07-03 15:55:00", "tamllSweetLevel": 4, "auctionSku": "\u026b:\u026b \u05b1530mm", "pics": "", "fromMall": true, "attributes": "", "fromMemory": 0}, {"useful": true, "userVipPic": "", "buyCount": 0, "userVipLevel": 0, "serviceRateContent": "", "displayUserLink": "", "auctionPicUrl": "", "displayRatePic": "b_blue_2.gif", "id": 248483847846, "anony": true, "appendComment": "", "tradeId": "", "dsr": 0.0, "tmallSweetPic": "tmall-grade-t2-18.png", "reply": "", "auctionPrice": "", "aliMallSeller": false, "carServiceLocation": "", "aucNumId": "", "picsSmall": "", "userInfo": "", "displayUserNumId": "", "position": "", "displayUserNick": "***", "displayRateSum": 905, "userIdEncryption": "", "sellerId": 715577065, "displayUserRateLink": "", "rateContent": "\u032b\u2dbc\u01f3\u28e1\u01be\u04bb\u037a\u073a\u00e3\u01b7\u0123\u04bb\u01ee\u04bb\u05bb\u0534\u01f3\u0363\u06e3\u01fe\u0533\u01b5\u03fe\u07a3\u0432\u06b5\uec35\u02b1\u0435\u00e1\u0421\u04b9\u01b9\u073a\u02b5\u00e1\u043b\u05f0\u02a6\u01f3\u00e1", "auctionTitle": "", "cmsSource": "\u00e8", "rateDate": "2015-08-09 16:11:52", "tamllSweetLevel": 2, "auctionSku": "\u026b:\ucdf1+\u0378\u07ff", "pics": ["//img.alicdn.com/bao/uploaded/i4/146000114070146830/TB2JyXZepXXXXbCXpXXXXXXXXXX_!!44714600-0-rate.jpg", "//img.alicdn.com/bao/uploaded/i1/146000114070145373/TB2I9XWepXXXXcjXpXXXXXXXXXX_!!44714600-0-rate.jpg", "//img.alicdn.com/bao/uploaded/i1/146000114070167158/TB2bHXTepXXXXcBXpXXXXXXXXXX_!!44714600-0-rate.jpg"], "fromMall": true, "attributes": "", "fromMemory": 0}, {"useful": true, "userVipPic": "", "buyCount": 0, "userVipLevel": 0, "serviceRateContent": "", "displayUserLink": "", "auctionPicUrl": "", "displayRatePic": "b_blue_2.gif", "id": 244765519651, "anony": false, "appendComment": "", "tradeId": "", "dsr": 0.0, "tmallSweetPic": "tmall-grade-t4-18.png", "reply": "", "auctionPrice": "", "aliMallSeller": false, "carServiceLocation": "", "aucNumId": "", "picsSmall": "", "userInfo": "", "displayUserNumId": "", "position": "", "displayUserNick": "b***e", "displayRateSum": 591, "userIdEncryption": "", "sellerId": 715577065, "displayUserRateLink": "", "rateContent": "\u052d\u05f0\u03b4\u28ec\u03aa\u0429\u02f5LED\u0135\u01be\u023d\u0623\u01fa\u0531\u0237\u00b3\u2f38LED\u0136\u07a3\u0735\u023b\u0735\u026b\u00a3\u03b4\u04bb\u05b1\u06b5\u063c\u06e3\u06b8\u03fb\uedaf\u02b1\u05a1\u0575\u073d\u02b5\u05bd\u05f0\u04bb\u0170\u05f0\u05bb\u04aa\u02ae\u08ec\u0170\u05f0\u02a6\u053c\u02b1\u073f\u0375\u02e3\u05e8\u04b5\u013e\u01fa\u00e3\ucee8\u03f4\u05fb\u077e\u0170\u047b\u04b6\u05e1\u01f7\u01f3\u05e8\u04b5\u073f\u05f0\u02e3\u00fa\u00f5\u01b7\u01f3\u07a320\u01bd\u05f5\u04a3\u023b\u07bc\u06b5\u0135\u01f8\u043e\u047e\u02e3\u04aa\u0435\u023a\u026b\u00a3\u0421\u04b9\u01b9\u0731\u03b4\u04b2\u01ff\u032b\u02e3\u0138\u026b\u98ec\u03f7\u01f3\u013a\u00e3\u053b\u01b7\u01f3\u04bb\u04b5\u01a3\u047f\u03b4\u04b2LED\u0134 \u28ec\u032c\u023a\u073a", "auctionTitle": "", "cmsSource": "\u00e8", "rateDate": "2015-06-24 15:01:58", "tamllSweetLevel": 4, "auctionSku": "\u026b:\u026b \u05b1530mm", "pics": ["//img.alicdn.com/bao/uploaded/i2/165650105928936076/TB2knuBdpXXXXbOXpXXXXXXXXXX_!!284246565-0-rate.jpg", "//img.alicdn.com/bao/uploaded/i1/165650105928901724/TB20RGLdpXXXXc8XXXXXXXXXXXX_!!284246565-0-rate.jpg", "//img.alicdn.com/bao/uploaded/i2/165650105928929535/TB2vH9zdpXXXXceXpXXXXXXXXXX_!!284246565-0-rate.jpg", "//img.alicdn.com/bao/uploaded/i1/165650105928902992/TB2gMi0dpXXXXX.XXXXXXXXXXXX_!!284246565-0-rate.jpg"], "fromMall": true, "attributes": "", "fromMemory": 0}, {"useful": true, "userVipPic": "", "buyCount": 0, "userVipLevel": 0, "serviceRateContent": "", "displayUserLink": "", "auctionPicUrl": "", "displayRatePic": "b_red_5.gif", "id": 246053030599, "anony": false, "appendComment": "", "tradeId": "", "dsr": 0.0, "tmallSweetPic": "tmall-grade-t2-18.png", "reply": "", "auctionPrice": "", "aliMallSeller": false, "carServiceLocation": "", "aucNumId": "", "picsSmall": "", "userInfo": "", "displayUserNumId": "", "position": "", "displayUserNick": "a***5", "displayRateSum": 204, "userIdEncryption": "", "sellerId": 715577065, "displayUserRateLink": "", "rateContent": "\u04b7\u02b1\u04b2\u073f\uc8ec\u0123\u04bf\u02ae\u03f2\u02b5\u00e3\u04bb\u05b1\u00f5\u0136\u00b5\u0135\u01a3\u00fb\u02f5\u05f0\u04b2\u01f3\u03bb\u032c\u04b2\u073a\u00e3\u05ae\u05f0\u02b5\u00f4\ub8ec\u00fa\u00f5\u0123", "auctionTitle": "", "cmsSource": "\u00e8", "rateDate": "2015-07-06 13:21:00", "tamllSweetLevel": 2, "auctionSku": "\u026b:\u026b \u05b1530mm", "pics": ["//img.alicdn.com/bao/uploaded/i1/144310107939890478/TB2iTCKdFXXXXaOXXXXXXXXXXXX_!!421414431-0-rate.jpg", "//img.alicdn.com/bao/uploaded/i4/144310107939875174/TB2TEiIdFXXXXaOXXXXXXXXXXXX_!!421414431-0-rate.jpg", "//img.alicdn.com/bao/uploaded/i3/144310107939961817/TB20WSFdFXXXXb2XXXXXXXXXXXX_!!421414431-0-rate.jpg"], "fromMall": true, "attributes": "", "fromMemory": 0}, {"useful": true, "userVipPic": "", "buyCount": 0, "userVipLevel": 0, "serviceRateContent": "", "displayUserLink": "", "auctionPicUrl": "", "displayRatePic": "b_blue_2.gif", "id": 245288862417, "anony": true, "appendComment": "", "tradeId": "", "dsr": 0.0, "tmallSweetPic": "tmall-grade-t3-18.png", "reply": "", "auctionPrice": "", "aliMallSeller": false, "carServiceLocation": "", "aucNumId": "", "picsSmall": "", "userInfo": "", "displayUserNumId": "", "position": "", "displayUserNick": "y***h", "displayRateSum": 786, "userIdEncryption": "", "sellerId": 715577065, "displayUserRateLink": "", "rateContent": "\u01b5\u0130\u05f0\u073a\u00e3\u052d\u0430\u05f0\u6ef9\u04bb\u033c\u053c\u05bd\u4ca2\u00fd\u022b\u06b5\u0123\u0435\u032b\u00e1\u05ae\udbbf\udd35\u01b1\u58ec\u026b\u0378\u0135\u0429\u073c\u00fb\u037f\u05f5\u0378\u0421\u0567\u04bb\u073c\u05be\u05a2\u013b\u03aa\u0436\u00b5\u05ba\udbbf\udd35\u0331\u58ec\u0374\u0223led\u0123\u00fb\u00f5\u0378\u05bb\u04bb\u01bd\u0378\u03fa\u0124\u0531\u0234\ud84e\udf3f\u02bc\u01f2\u032b\u0123\u03aa\u00fb\u0378\u04a3\u04bb\u00b0\u0731\u4efb\u026b\u023b\u03bd\ucdf1\u01e3\u0475\u05b5\u00fb\u0378led\u0123\u05ae\u04bb\u043e\u0371......\u00fb\u0378led\u58ec\u0378\u05b5\u04f3\u01f9\u0138\u043e\u02b1\u05b2\ucdf1\u01f5\u0138\u043e\u02e3\u04a3\u023b\u0130\u05e1\u037f\u04bb\u05b1\u07f5\u0363\u3c34\u04b2\u0734\ufd7d\u04bb\u0427\u04e6\u00b2\u02bd\u037a\u00e1\u0736\u05ae\u01b7\u01f3\u00ff\u02ba\u03f7\u04bb\u0421\u00f5\u0123\u07f1\u022b\u0135\u023a\u0379\u026b\u00b5\u0139\u0723\u00f6\u07a1 618\u0635\u0635\u7ef0\u0478\u03b2\ue8ec\u05ae\udb9e\udcbb\u073c\u02b1\u05f0\u04b2\u013a\u0324\u02b5", "auctionTitle": "", "cmsSource": "\u00e8", "rateDate": "2015-06-29 14:44:31", "tamllSweetLevel": 3, "auctionSku": "\u026b:\u026b \u05b1530mm", "pics": ["//img.alicdn.com/bao/uploaded/i1/137110106770523077/TB2S2n.dpXXXXbYXpXXXXXXXXXX_!!51833711-0-rate.jpg", "//img.alicdn.com/bao/uploaded/i1/137110106770495905/TB2ub2.dpXXXXbMXpXXXXXXXXXX_!!51833711-0-rate.jpg", "//img.alicdn.com/bao/uploaded/i3/137110106770503995/TB2BZZgdpXXXXX7XpXXXXXXXXXX_!!51833711-0-rate.jpg"], "fromMall": true, "attributes": "", "fromMemory": 0}, {"useful": true, "userVipPic": "", "buyCount": 0, "userVipLevel": 0, "serviceRateContent": "", "displayUserLink": "", "auctionPicUrl": "", "displayRatePic": "b_red_4.gif", "id": 245903188551, "anony": true, "appendComment": "", "tradeId": "", "dsr": 0.0, "tmallSweetPic": "tmall-grade-t2-18.png", "reply": "", "auctionPrice": "", "aliMallSeller": false, "carServiceLocation": "", "aucNumId": "", "picsSmall": "", "userInfo": "", "displayUserNumId": "", "position": "", "displayUserNick": "u***w", "displayRateSum": 111, "userIdEncryption": "", "sellerId": 715577065, "displayUserRateLink": "", "rateContent": "\u01f3\u01af\u04bb\u01a1\u02b1\u0368\u01a3\u01ba\u0427\u01f3\u07a1\u01f5\u013a\u01af\uedaf\u02b1\u013c\u01ee\u04b2\u05b5\u01bc\u04bb\u01a1 \u0377\u032c\u023a\u073a\u00e3\u02b2\u00f4\u2dbc\u02b1\ud846\udcfa\u073a\u00f5\u04bb\u03b9\u9863", "auctionTitle": "", "cmsSource": "\u00e8", "rateDate": "2015-07-06 16:00:12", "tamllSweetLevel": 2, "auctionSku": "\u026b:\u026b \u05b1530mm", "pics": ["//img.alicdn.com/bao/uploaded/i4/102600107967906430/TB21.5zdFXXXXaXXpXXXXXXXXXX_!!111730260-0-rate.jpg", "//img.alicdn.com/bao/uploaded/i4/102600107967967076/TB2LMaTdFXXXXXFXXXXXXXXXXXX_!!111730260-0-rate.jpg", "//img.alicdn.com/bao/uploaded/i3/102600107967989156/TB24QKMdFXXXXbrXXXXXXXXXXXX_!!111730260-0-rate.jpg"], "fromMall": true, "attributes": "", "fromMemory": 0}, {"useful": true, "userVipPic": "", "buyCount": 0, "userVipLevel": 0, "serviceRateContent": "", "displayUserLink": "", "auctionPicUrl": "", "displayRatePic": "b_blue_3.gif", "id": 257463089759, "anony": true, "appendComment": "", "tradeId": "", "dsr": 0.0, "tmallSweetPic": "tmall-grade-t4-18.png", "reply": "", "auctionPrice": "", "aliMallSeller": false, "carServiceLocation": "", "aucNumId": "", "picsSmall": "", "userInfo": "", "displayUserNumId": "", "position": "", "displayUserNick": "\u0163***\u0467", "displayRateSum": 1808, "userIdEncryption": "", "sellerId": 715577065, "displayUserRateLink": "", "rateContent": "\u01f3\u0132\u0176\u05f0\u022b\u01be\u01f3\u013e\u00a3\u04bb\u01f9\u02b4\u01b5\u0137\u7df6\u01b1\u0371\u07bf\u04bb\u04e6\u022b\u01b7\u01f7\u01f3\u6863\u04bb\u03b7\u01f3\u0139\uf8ec\u04bb\u01bc\u0121 \u0377\u01f3\u00e3\u023b\u00e6\u01f2\u4df3\u013b\u0634\u04ba\u0736\u2863\u0438\u0677\ud94e\udf37\u01f3\u0121", "auctionTitle": "", "cmsSource": "\u00e8", "rateDate": "2015-11-20 00:27:25", "tamllSweetLevel": 4, "auctionSku": "\u026b:\ucdf1\u01e3\u026b \u05b1530mm", "pics": ["//img.alicdn.com/bao/uploaded/i3/104700141640164342/TB2LajrhpXXXXavXpXXXXXXXXXX_!!0-rate.jpg", "//img.alicdn.com/bao/uploaded/i2/104700141640135378/TB2PGjrhpXXXXajXpXXXXXXXXXX_!!0-rate.jpg", "//img.alicdn.com/bao/uploaded/i4/104700141640113402/TB26H_AhpXXXXcJXXXXXXXXXXXX_!!0-rate.jpg", "//img.alicdn.com/bao/uploaded/i2/104700141640259154/TB2h8POhpXXXXXnXXXXXXXXXXXX_!!0-rate.jpg"], "fromMall": true, "attributes": "", "fromMemory": 0}, {"useful": true, "userVipPic": "", "buyCount": 0, "userVipLevel": 0, "serviceRateContent": "", "displayUserLink": "", "auctionPicUrl": "", "displayRatePic": "b_blue_2.gif", "id": 253464911105, "anony": true, "appendComment": {"commentTime": "2015-10-22 17:52:06", "days": 11, "pics": ["//img.alicdn.com/bao/uploaded/i2/111190131853639779/TB1DbafKXXXXXb8XVXXXXXXXXXX_!!0-rate.jpg", "//img.alicdn.com/bao/uploaded/i4/111190131853638747/TB1mGuhKXXXXXbeXVXXXXXXXXXX_!!0-rate.jpg", "//img.alicdn.com/bao/uploaded/i2/111190131853634787/TB1zDKDKXXXXXaeXpXXXXXXXXXX_!!0-rate.jpg", "//img.alicdn.com/bao/uploaded/i4/111190131853634321/TB1NMKKKXXXXXaRXXXXXXXXXXXX_!!0-rate.jpg", "//img.alicdn.com/bao/uploaded/i2/111190131853651155/TB1uN1AKXXXXXbOXpXXXXXXXXXX_!!0-rate.jpg"], "content": "\u05ae\u032b\u01af\u02e3\u05b5\u04f5\u0423\u06fb699\u02eb\u02ae\u04bb\u05b8\uedaf\u04bb\u0663?", "reply": "", "commentId": ""}, "tradeId": "", "dsr": 0.0, "tmallSweetPic": "tmall-grade-t3-18.png", "reply": "", "auctionPrice": "", "aliMallSeller": false, "carServiceLocation": "", "aucNumId": "", "picsSmall": "", "userInfo": "", "displayUserNumId": "", "position": "", "displayUserNick": "\u0421***", "displayRateSum": 750, "userIdEncryption": "", "sellerId": 715577065, "displayUserRateLink": "", "rateContent": "\u00fb\u0430\u05f0\u0230\u05f0\u05f7\u0263\u02b5\u02b5\u032b\u0368", "auctionTitle": "", "cmsSource": "\u00e8", "rateDate": "2015-10-11 14:01:23", "tamllSweetLevel": 3, "auctionSku": "\u026b:\ucdf1\u01e3\u026b \u05b1530mm", "pics": ["//img.alicdn.com/bao/uploaded/i4/111190128520439325/TB1VxbhJVXXXXcjXFXXXXXXXXXX_!!0-rate.jpg", "//img.alicdn.com/bao/uploaded/i2/111190128520427427/TB1EUHXJVXXXXbPXVXXXXXXXXXX_!!0-rate.jpg", "//img.alicdn.com/bao/uploaded/i4/111190128520467549/TB1lJbhJVXXXXcgXFXXXXXXXXXX_!!0-rate.jpg", "//img.alicdn.com/bao/uploaded/i4/111190128520426470/TB1EMflJVXXXXamXFXXXXXXXXXX_!!0-rate.jpg"], "fromMall": true, "attributes": "", "fromMemory": 0}, {"useful": true, "userVipPic": "", "buyCount": 0, "userVipLevel": 0, "serviceRateContent": "", "displayUserLink": "", "auctionPicUrl": "", "displayRatePic": "b_blue_3.gif", "id": 257199365236, "anony": true, "appendComment": {"commentTime": "2015-12-06 22:24:01", "days": 18, "pics": ["//img.alicdn.com/bao/uploaded/i3/197980147529071518/TB26pJUiXXXXXXyXpXXXXXXXXXX_!!0-rate.jpg"], "content": "\u04ba\u0123\u0575\u03f2\u013a\u073e\u03f2", "reply": "", "commentId": ""}, "tradeId": "", "dsr": 0.0, "tmallSweetPic": "tmall-grade-t3-18.png", "reply": "", "auctionPrice": "", "aliMallSeller": false, "carServiceLocation": "", "aucNumId": "", "picsSmall": "", "userInfo": "", "displayUserNumId": "", "position": "", "displayUserNick": "***", "displayRateSum": 1057, "userIdEncryption": "", "sellerId": 715577065, "displayUserRateLink": "", "rateContent": "\u013a\u073a\u00ff\u0135\u01a3\u04a3\u04b2\u073a\u00e3\u04fe\u01fa", "auctionTitle": "", "cmsSource": "\u00e8", "rateDate": "2015-11-18 14:30:09", "tamllSweetLevel": 3, "auctionSku": "\u026b:\ucdf1\u01e3\u026b \u05b1530mm", "pics": ["//img.alicdn.com/bao/uploaded/i2/197980141108885720/TB27o5FhpXXXXXeXpXXXXXXXXXX_!!0-rate.jpg", "//img.alicdn.com/bao/uploaded/i3/197980141108852661/TB2ExSxhpXXXXa3XpXXXXXXXXXX_!!0-rate.jpg", "//img.alicdn.com/bao/uploaded/i4/197980141108887104/TB2hYGPhpXXXXaWXXXXXXXXXXXX_!!0-rate.jpg", "//img.alicdn.com/bao/uploaded/i4/197980141108876047/TB2MXuvhpXXXXbAXpXXXXXXXXXX_!!0-rate.jpg"], "fromMall": true, "attributes": "", "fromMemory": 0}, {"useful": true, "userVipPic": "", "buyCount": 0, "userVipLevel": 0, "serviceRateContent": "", "displayUserLink": "", "auctionPicUrl": "", "displayRatePic": "b_red_3.gif", "id": 249130250596, "anony": true, "appendComment": "", "tradeId": "", "dsr": 0.0, "tmallSweetPic": "tmall-grade-t3-18.png", "reply": "", "auctionPrice": "", "aliMallSeller": false, "carServiceLocation": "", "aucNumId": "", "picsSmall": "", "userInfo": "", "displayUserNumId": "", "position": "", "displayUserNick": "s***c", "displayRateSum": 59, "userIdEncryption": "", "sellerId": 715577065, "displayUserRateLink": "", "rateContent": "\u01ba\u073a\u00fa\u03f2\u026b\u03f2\u0435\udb4e\udf32\u04b2\u03f2\u0121\u0377\u04b2\u00e3\u01ff\u02a6\u032c\u0232\u00e1\u0435\u3c69\u053c", "auctionTitle": "", "cmsSource": "\u00e8", "rateDate": "2015-08-17 09:57:19", "tamllSweetLevel": 3, "auctionSku": "\u026b:\u026b \u05b1530mm", "pics": ["//img.alicdn.com/bao/uploaded/i1/145650115607290253/TB2Wy4heFXXXXXhXXXXXXXXXXXX_!!2180764565-0-rate.jpg", "//img.alicdn.com/bao/uploaded/i3/145650115607275398/TB2TFQVepXXXXaJXpXXXXXXXXXX_!!2180764565-0-rate.jpg", "//img.alicdn.com/bao/uploaded/i4/145650115607260471/TB2Qj39epXXXXbOXXXXXXXXXXXX_!!2180764565-0-rate.jpg"], "fromMall": true, "attributes": "", "fromMemory": 0}, {"useful": true, "userVipPic": "", "buyCount": 0, "userVipLevel": 0, "serviceRateContent": "", "displayUserLink": "", "auctionPicUrl": "", "displayRatePic": "b_blue_1.gif", "id": 246116930668, "anony": true, "appendComment": "", "tradeId": "", "dsr": 0.0, "tmallSweetPic": "tmall-grade-t3-18.png", "reply": "", "auctionPrice": "", "aliMallSeller": false, "carServiceLocation": "", "aucNumId": "", "picsSmall": "", "userInfo": "", "displayUserNumId": "", "position": "", "displayUserNick": "***", "displayRateSum": 349, "userIdEncryption": "", "sellerId": 715577065, "displayUserRateLink": "", "rateContent": "\u01b7\u043e\ud8ec\u05f0\u013a\u073a\u00e3\u04fb\u00fb\u016a\u00e3\u053b\u00fb\u05f0\u01ff\u05f0\u04e6\u00fb\u0123\u02bd\u03f2\u043b \u04b7\u0676\u01f3\uc8e1", "auctionTitle": "", "cmsSource": "\u00e8", "rateDate": "2015-07-11 14:41:37", "tamllSweetLevel": 3, "auctionSku": "\u026b:\u026b \u05b1530mm", "pics": ["//img.alicdn.com/bao/uploaded/i2/178670108838866562/TB2MB.cdFXXXXbyXpXXXXXXXXXX_!!821977867-0-rate.jpg", "//img.alicdn.com/bao/uploaded/i2/178670108838882745/TB2WM3kdFXXXXXwXpXXXXXXXXXX_!!821977867-0-rate.jpg"], "fromMall": true, "attributes": "", "fromMemory": 0}, {"useful": true, "userVipPic": "", "buyCount": 0, "userVipLevel": 0, "serviceRateContent": "", "displayUserLink": "", "auctionPicUrl": "", "displayRatePic": "b_blue_3.gif", "id": 257870826437, "anony": true, "appendComment": {"commentTime": "2015-11-22 12:32:10", "days": 0, "pics": "", "content": "\u0377\u02a8\u04f3\u07a3", "reply": "", "commentId": ""}, "tradeId": "", "dsr": 0.0, "tmallSweetPic": "tmall-grade-t3-18.png", "reply": "", "auctionPrice": "", "aliMallSeller": false, "carServiceLocation": "", "aucNumId": "", "picsSmall": "", "userInfo": "", "displayUserNumId": "", "position": "", "displayUserNick": "***\u0377", "displayRateSum": 1313, "userIdEncryption": "", "sellerId": 715577065, "displayUserRateLink": "", "rateContent": "\u01b3\u01afbling-bling\u0123\u01ac\u0427\u04bb\u0623\u053a\u0273", "auctionTitle": "", "cmsSource": "\u00e8", "rateDate": "2015-11-22 12:25:39", "tamllSweetLevel": 3, "auctionSku": "\u026b:\ucdf1\u01e3\u026b \u05b1530mm", "pics": ["//img.alicdn.com/bao/uploaded/i2/128740142431418915/TB25x7YhpXXXXcCXXXXXXXXXXXX_!!0-rate.jpg", "//img.alicdn.com/bao/uploaded/i2/128740142431438723/TB2tyZThpXXXXXQXpXXXXXXXXXX_!!0-rate.jpg"], "fromMall": true, "attributes": "", "fromMemory": 0}, {"useful": true, "userVipPic": "", "buyCount": 0, "userVipLevel": 0, "serviceRateContent": "", "displayUserLink": "", "auctionPicUrl": "", "displayRatePic": "b_red_5.gif", "id": 257098451834, "anony": true, "appendComment": "", "tradeId": "", "dsr": 0.0, "tmallSweetPic": "tmall-grade-t2-18.png", "reply": "", "auctionPrice": "", "aliMallSeller": false, "carServiceLocation": "", "aucNumId": "", "picsSmall": "", "userInfo": "", "displayUserNumId": "", "position": "", "displayUserNick": "z***4", "displayRateSum": 236, "userIdEncryption": "", "sellerId": 715577065, "displayUserRateLink": "", "rateContent": "1013\u0176\u0123\u02eb11\u013f\ue8ec\ucd7d\u0123\u0732\ud8ec\u05f0\u04b2\u073a\u00e3\u043e\u03f4\u013a\u00f0\u05f0\u02e3\u05aa\u0376\u02e3\u01a3", "auctionTitle": "", "cmsSource": "\u00e8", "rateDate": "2015-11-15 22:40:51", "tamllSweetLevel": 2, "auctionSku": "\u026b:\ucdf1\u01e3\u026b \u05b1530mm", "pics": ["//img.alicdn.com/bao/uploaded/i4/163060140249165430/TB2krtchpXXXXX_XpXXXXXXXXXX_!!0-rate.jpg", "//img.alicdn.com/bao/uploaded/i4/163060140249150280/TB2DsBthpXXXXXZXXXXXXXXXXXX_!!0-rate.jpg", "//img.alicdn.com/bao/uploaded/i3/163060140249132258/TB2C7tphpXXXXX2XXXXXXXXXXXX_!!0-rate.jpg"], "fromMall": true, "attributes": "", "fromMemory": 0}, {"useful": true, "userVipPic": "", "buyCount": 0, "userVipLevel": 0, "serviceRateContent": "", "displayUserLink": "", "auctionPicUrl": "", "displayRatePic": "b_red_3.gif", "id": 257268300050, "anony": true, "appendComment": {"commentTime": "2015-11-19 13:52:34", "days": 0, "pics": "", "content": "\u052d\u0232\u073525%", "reply": "", "commentId": ""}, "tradeId": "", "dsr": 0.0, "tmallSweetPic": "tmall-grade-t2-18.png", "reply": "", "auctionPrice": "", "aliMallSeller": false, "carServiceLocation": "", "aucNumId": "", "picsSmall": "", "userInfo": "", "displayUserNumId": "", "position": "", "displayUserNick": "k***1", "displayRateSum": 65, "userIdEncryption": "", "sellerId": 715577065, "displayUserRateLink": "", "rateContent": "\u02ae\u05ba\u00e3\u05ea\u026b\u2c35\u05e2\u2cbb\u0735\u0730\u07b5\u0121", "auctionTitle": "", "cmsSource": "\u00e8", "rateDate": "2015-11-19 13:04:14", "tamllSweetLevel": 2, "auctionSku": "\u026b:\ucdf1\u01e3\u026b \u05b1530mm", "pics": ["//img.alicdn.com/bao/uploaded/i1/177840141432318260/TB2.UfthpXXXXXbXXXXXXXXXXXX_!!0-rate.jpg", "//img.alicdn.com/bao/uploaded/i1/177840141432323189/TB20c_mhpXXXXazXXXXXXXXXXXX_!!0-rate.jpg", "//img.alicdn.com/bao/uploaded/i3/177840141432301882/TB2ocHlhpXXXXaPXXXXXXXXXXXX_!!0-rate.jpg"], "fromMall": true, "attributes": "", "fromMemory": 0}, {"useful": true, "userVipPic": "", "buyCount": 0, "userVipLevel": 0, "serviceRateContent": "", "displayUserLink": "", "auctionPicUrl": "", "displayRatePic": "b_blue_1.gif", "id": 256857126074, "anony": true, "appendComment": "", "tradeId": "", "dsr": 0.0, "tmallSweetPic": "tmall-grade-t3-18.png", "reply": "", "auctionPrice": "", "aliMallSeller": false, "carServiceLocation": "", "aucNumId": "", "picsSmall": "", "userInfo": "", "displayUserNumId": "", "position": "", "displayUserNick": "***", "displayRateSum": 259, "userIdEncryption": "", "sellerId": 715577065, "displayUserRateLink": "", "rateContent": "\u01af\u0135\u01a3\u06b6\u0328\u02e3\u016e\u047a\u03f2\u0676\u04b2\u073f\uc8e1\u032c\u023a\u0730\u28e1", "auctionTitle": "", "cmsSource": "\u00e8", "rateDate": "2015-11-16 21:26:11", "tamllSweetLevel": 3, "auctionSku": "\u026b:\ucdf1\u01e3\u026b \u05b1530mm", "pics": ["//img.alicdn.com/bao/uploaded/i3/114330140563258621/TB2KnJHhpXXXXXCXpXXXXXXXXXX_!!0-rate.jpg", "//img.alicdn.com/bao/uploaded/i2/114330140563242732/TB2z8dshpXXXXc5XpXXXXXXXXXX_!!0-rate.jpg", "//img.alicdn.com/bao/uploaded/i3/114330140563229373/TB2Td8RhpXXXXbfXXXXXXXXXXXX_!!0-rate.jpg", "//img.alicdn.com/bao/uploaded/i4/114330140563226919/TB2EVXVhpXXXXa.XXXXXXXXXXXX_!!0-rate.jpg", "//img.alicdn.com/bao/uploaded/i2/114330140563244223/TB2FlxwhpXXXXcbXpXXXXXXXXXX_!!0-rate.jpg"], "fromMall": true, "attributes": "", "fromMemory": 0}, {"useful": true, "userVipPic": "", "buyCount": 0, "userVipLevel": 0, "serviceRateContent": "", "displayUserLink": "", "auctionPicUrl": "", "displayRatePic": "b_blue_3.gif", "id": 257652369967, "anony": true, "appendComment": "", "tradeId": "", "dsr": 0.0, "tmallSweetPic": "tmall-grade-t4-18.png", "reply": "", "auctionPrice": "", "aliMallSeller": false, "carServiceLocation": "", "aucNumId": "", "picsSmall": "", "userInfo": "", "displayUserNumId": "", "position": "", "displayUserNick": "***", "displayRateSum": 1060, "userIdEncryption": "", "sellerId": 715577065, "displayUserRateLink": "", "rateContent": "\u053c\u05f0\u0123\u0737\u38ec\u026b\u053c\u04a3\u0623\u0161\u03a8\u04bb\u00f5\u013e\u01f5\u0435\u03a3\u053c\u04fd\u02e1", "auctionTitle": "", "cmsSource": "\u00e8", "rateDate": "2015-11-21 16:36:54", "tamllSweetLevel": 4, "auctionSku": "\u026b:\ucdf1\u01e3\u026b \u05b1530mm", "pics": ["//img.alicdn.com/bao/uploaded/i2/143060142185320050/TB2FpkthpXXXXabXpXXXXXXXXXX_!!0-rate.jpg", "//img.alicdn.com/bao/uploaded/i2/143060142185319554/TB2WrwjhpXXXXb1XpXXXXXXXXXX_!!0-rate.jpg", "//img.alicdn.com/bao/uploaded/i1/143060142185315588/TB2ZR3jhpXXXXbZXpXXXXXXXXXX_!!0-rate.jpg", "//img.alicdn.com/bao/uploaded/i2/143060142185320558/TB2ogkBhpXXXXcnXXXXXXXXXXXX_!!0-rate.jpg"], "fromMall": true, "attributes": "", "fromMemory": 0}, {"useful": true, "userVipPic": "", "buyCount": 0, "userVipLevel": 0, "serviceRateContent": "", "displayUserLink": "", "auctionPicUrl": "", "displayRatePic": "b_blue_1.gif", "id": 256701928785, "anony": true, "appendComment": {"commentTime": "2015-12-01 15:09:42", "days": 16, "pics": "", "content": "\u047e\u01fb\u00fb\ubd7d\u01b7\u02b1\uda4e\udf35\u04b8\u02f8\u03f2\u023b\u02eb11\uedaf\u04e6\u00f5\u00f5\u0123\u02ff\u0335\u9ef9\u0429\u0421\u02e1\u06b4\u043b\u043b\u04b8\u0133\u0175\u0135\u0137\u01b15W\u01b7\u28e1", "reply": "", "commentId": ""}, "tradeId": "", "dsr": 0.0, "tmallSweetPic": "tmall-grade-t4-18.png", "reply": "", "auctionPrice": "", "aliMallSeller": false, "carServiceLocation": "", "aucNumId": "", "picsSmall": "", "userInfo": "", "displayUserNumId": "", "position": "", "displayUserNick": "m***3", "displayRateSum": 253, "userIdEncryption": "", "sellerId": 715577065, "displayUserRateLink": "", "rateContent": "\u01b7\u01b5\u02f7\u0123\u00a3\u01bf\u0467\u05f0\u38ec\u0427\u04b5\u0524\u06a3\u04e6\u02eb11\u0131\u02e3\u07a1", "auctionTitle": "", "cmsSource": "\u00e8", "rateDate": "2015-11-14 23:05:33", "tamllSweetLevel": 4, "auctionSku": "\u026b:\ucdf1\u01e3\u026b \u05b1530mm", "pics": ["//img.alicdn.com/bao/uploaded/i2/153970139947182419/TB2RbAphXXXXXcyXpXXXXXXXXXX_!!0-rate.jpg", "//img.alicdn.com/bao/uploaded/i3/153970139947190830/TB2Im3yhXXXXXaQXpXXXXXXXXXX_!!0-rate.jpg", "//img.alicdn.com/bao/uploaded/i4/153970139947195308/TB2C27shXXXXXbSXpXXXXXXXXXX_!!0-rate.jpg", "//img.alicdn.com/bao/uploaded/i2/153970139947180975/TB2Gr7rhXXXXXchXpXXXXXXXXXX_!!0-rate.jpg", "//img.alicdn.com/bao/uploaded/i3/153970139947192782/TB2RwgrhXXXXXbZXpXXXXXXXXXX_!!0-rate.jpg"], "fromMall": true, "attributes": "", "fromMemory": 0}, {"useful": true, "userVipPic": "", "buyCount": 0, "userVipLevel": 0, "serviceRateContent": "", "displayUserLink": "", "auctionPicUrl": "", "displayRatePic": "b_red_4.gif", "id": 257525243175, "anony": true, "appendComment": "", "tradeId": "", "dsr": 0.0, "tmallSweetPic": "tmall-grade-t2-18.png", "reply": "", "auctionPrice": "", "aliMallSeller": false, "carServiceLocation": "", "aucNumId": "", "picsSmall": "", "userInfo": "", "displayUserNumId": "", "position": "", "displayUserNick": "***", "displayRateSum": 102, "userIdEncryption": "", "sellerId": 715577065, "displayUserRateLink": "", "rateContent": "\u0575\u01f5\u02e3\u01af\u05f0\u073a\u00e3\u022b\u00fb\u05f0\u03e3\u06b4\u0427\u02eb11\u01f0\u03bc\u04fe\u06fb\u0524\uedaf\uda4e\udf3b\u0279\u03bc\u01f0\u06f5\u013b\uedaf\uda97\udf75\u0135\u026b\u01f5\u01a3\u073f\u0121\u043b\u01f0\u02a8\u04e1\u02a8\u04fa\u06fa\udb4e\udf3b\u0438\u03bb\u00e6\u013f\u0377\u073a\u0176\u05a7\u05a3\u06b4\u05f0\u03f5\u0427", "auctionTitle": "", "cmsSource": "\u00e8", "rateDate": "2015-11-20 11:28:39", "tamllSweetLevel": 2, "auctionSku": "\u026b:\ucdf1\u01e3\u026b \u05b1530mm", "pics": ["//img.alicdn.com/bao/uploaded/i3/163250141754838897/TB2dhvDhpXXXXayXpXXXXXXXXXX_!!0-rate.jpg", "//img.alicdn.com/bao/uploaded/i2/163250141754869580/TB26knOhpXXXXclXXXXXXXXXXXX_!!0-rate.jpg", "//img.alicdn.com/bao/uploaded/i3/163250141754834415/TB21BTJhpXXXXc7XXXXXXXXXXXX_!!0-rate.jpg", "//img.alicdn.com/bao/uploaded/i3/163250141754875025/TB2rfLRhpXXXXbDXXXXXXXXXXXX_!!0-rate.jpg", "//img.alicdn.com/bao/uploaded/i2/163250141754832487/TB2a6_GhpXXXXXCXpXXXXXXXXXX_!!0-rate.jpg"], "fromMall": true, "attributes": "", "fromMemory": 0}, {"useful": true, "userVipPic": "", "buyCount": 0, "userVipLevel": 0, "serviceRateContent": "", "displayUserLink": "", "auctionPicUrl": "", "displayRatePic": "b_blue_1.gif", "id": 257353454616, "anony": true, "appendComment": "", "tradeId": "", "dsr": 0.0, "tmallSweetPic": "tmall-grade-t4-18.png", "reply": "", "auctionPrice": "", "aliMallSeller": false, "carServiceLocation": "", "aucNumId": "", "picsSmall": "", "userInfo": "", "displayUserNumId": "", "position": "", "displayUserNick": "l***y", "displayRateSum": 486, "userIdEncryption": "", "sellerId": 715577065, "displayUserRateLink": "", "rateContent": "\u0172\ud8ec\u0230\u05f0\u01f3\u02b5\u013c\u06f8\u00b4\u067f\u0421\u04bb\u0421", "auctionTitle": "", "cmsSource": "\u00e8", "rateDate": "2015-11-19 14:18:54", "tamllSweetLevel": 4, "auctionSku": "\u026b:\ucdf1\u01e3\u026b \u05b1530mm", "pics": ["//img.alicdn.com/bao/uploaded/i4/124990141454647090/TB2IRC9hpXXXXaSXpXXXXXXXXXX_!!0-rate.jpg", "//img.alicdn.com/bao/uploaded/i2/124990141454638355/TB2DyS.hpXXXXabXpXXXXXXXXXX_!!0-rate.jpg"], "fromMall": true, "attributes": "", "fromMemory": 0}, {"useful": true, "userVipPic": "", "buyCount": 0, "userVipLevel": 0, "serviceRateContent": "", "displayUserLink": "", "auctionPicUrl": "", "displayRatePic": "b_blue_3.gif", "id": 257498487704, "anony": true, "appendComment": "", "tradeId": "", "dsr": 0.0, "tmallSweetPic": "tmall-grade-t3-18.png", "reply": "", "auctionPrice": "", "aliMallSeller": false, "carServiceLocation": "", "aucNumId": "", "picsSmall": "", "userInfo": "", "displayUserNumId": "", "position": "", "displayUserNick": "w***8", "displayRateSum": 1144, "userIdEncryption": "", "sellerId": 715577065, "displayUserRateLink": "", "rateContent": "\u05f0\u073a\u00e3\u04b2\u01af\u00b5\u03e7\u04b2\u06bc\u04a3\u00b5\u05fb\u063c\u04b0\u05f0\u0279\u037c", "auctionTitle": "", "cmsSource": "\u00e8", "rateDate": "2015-11-19 21:56:09", "tamllSweetLevel": 3, "auctionSku": "\u026b:\ucdf1\u01e3\u026b \u05b1530mm", "pics": ["//img.alicdn.com/bao/uploaded/i2/189530141596749765/TB27LrfhpXXXXbTXpXXXXXXXXXX_!!0-rate.jpg", "//img.alicdn.com/bao/uploaded/i1/189530141596747289/TB26TrehpXXXXbVXpXXXXXXXXXX_!!0-rate.jpg", "//img.alicdn.com/bao/uploaded/i2/189530141596750729/TB2lGTAhpXXXXbCXXXXXXXXXXXX_!!0-rate.jpg", "//img.alicdn.com/bao/uploaded/i2/189530141596765090/TB2nnPlhpXXXXaoXpXXXXXXXXXX_!!0-rate.jpg"], "fromMall": true, "attributes": "", "fromMemory": 0}], "tags": ""}}